^C:\USERS\500160213\SOURCE\REPOS\AJK.ASSIGNMENT3\ASSIGNMENT 3 - POINTERS\ASSIGNMENT 3 - POINTERS\MAIN.CPP
C:\USERS\500160213\SOURCE\REPOS\AJK.ASSIGNMENT3\ASSIGNMENT 3 - POINTERS\ASSIGNMENT 3 - POINTERS\X64\DEBUG\VC141.PDB
C:\USERS\500160213\SOURCE\REPOS\AJK.ASSIGNMENT3\ASSIGNMENT 3 - POINTERS\ASSIGNMENT 3 - POINTERS\X64\DEBUG\VC141.IDB
C:\USERS\500160213\SOURCE\REPOS\AJK.ASSIGNMENT3\ASSIGNMENT 3 - POINTERS\ASSIGNMENT 3 - POINTERS\X64\DEBUG\MAIN.OBJ
